paths,songs,features,groundtruth,video_links
datasets/original/CE200/30007,30007.mp3,None,ground_truth.txt,https://www.youtube.com/watch?v=AAAAAAAA
datasets/original/CE200/95,95.mp3,feature.json,ground_truth.txt,https://www.youtube.com/watch?v=XqoanTj5pNY
datasets/original/CE200/30001,30001.mp3,None,ground_truth.txt,https://www.youtube.com/watch?v=AAAAAAAA
datasets/original/CE200/18,18.mp3,feature.json,ground_truth.txt,https://www.youtube.com/watch?v=eyPulBsUAOs
datasets/original/CE200/3,3.mp3,feature.json,ground_truth.txt,https://www.youtube.com/watch?v=mQ055hHdxbE
datasets/original/CE200/94,94.mp3,feature.json,ground_truth.txt,https://www.youtube.com/watch?v=Ei8UnOPJX7w
datasets/original/CE200/192,192.mp3,feature.json,ground_truth.txt,https://www.youtube.com/watch?v=6Whgn_iE5uc
datasets/original/CE200/30010,30010.mp3,None,ground_truth.txt,https://www.youtube.com/watch?v=AAAAAAAA
datasets/original/CE200/69,69.mp3,feature.json,ground_truth.txt,https://www.youtube.com/watch?v=RgKAFK5djSkk
datasets/original/CE200/30013,30013.mp3,None,ground_truth.txt,https://www.youtube.com/watch?v=AAAAAAAA
datasets/original/CE200/23,23.mp3,feature.json,ground_truth.txt,https://www.youtube.com/watch?v=E8gmARGvPlI
datasets/original/CE200/42,42.mp3,feature.json,ground_truth.txt,https://www.youtube.com/watch?v=c3_NntYhzV4
datasets/original/CE200/25,25.mp3,feature.json,ground_truth.txt,https://www.youtube.com/watch?v=3AtDnEC4zak
datasets/original/CE200/186,186.mp3,feature.json,ground_truth.txt,https://www.youtube.com/watch?v=ovzPtweLM8A
datasets/original/CE200/178,178.mp3,feature.json,ground_truth.txt,https://www.youtube.com/watch?v=xoH29SM3e8I
datasets/original/CE200/47,47.mp3,feature.json,ground_truth.txt,https://www.youtube.com/watch?v=oyEuk8j8imI
datasets/original/CE200/58,58.mp3,feature.json,ground_truth.txt,https://www.youtube.com/watch?v=ru0K8uYEZWww
datasets/original/CE200/174,174.mp3,feature.json,ground_truth.txt,https://www.youtube.com/watch?v=G6ABeusqNgU
datasets/original/CE200/30017,30017.mp3,None,ground_truth.txt,https://www.youtube.com/watch?v=AAAAAAAA
datasets/original/CE200/19,19.mp3,feature.json,ground_truth.txt,https://www.youtube.com/watch?v=dqF_zvbpXJ0
datasets/original/CE200/26,26.mp3,feature.json,ground_truth.txt,https://www.youtube.com/watch?v=nfs8NYg7yQM
datasets/original/CE200/91,91.mp3,feature.json,ground_truth.txt,https://www.youtube.com/watch?v=98WtmW-lfeEE
datasets/original/CE200/75,75.mp3,feature.json,ground_truth.txt,https://www.youtube.com/watch?v=kOkQ4T5WO9E
datasets/original/CE200/184,184.mp3,feature.json,ground_truth.txt,https://www.youtube.com/watch?v=jU2FQfoTvEg
datasets/original/CE200/185,185.mp3,feature.json,ground_truth.txt,https://www.youtube.com/watch?v=meU_gtsx9-g
datasets/original/CE200/167,167.mp3,feature.json,ground_truth.txt,https://www.youtube.com/watch?v=anurOHpo0aY
datasets/original/CE200/30009,30009.mp3,None,ground_truth.txt,https://www.youtube.com/watch?v=AAAAAAAA
datasets/original/CE200/10,10.mp3,feature.json,ground_truth.txt,https://www.youtube.com/watch?v=dvgZkm1xWPE
datasets/original/CE200/20,20.mp3,feature.json,ground_truth.txt,https://www.youtube.com/watch?v=Ju8Hr50Ckwk
datasets/original/CE200/190,190.mp3,feature.json,ground_truth.txt,https://www.youtube.com/watch?v=z_59a_hnYdU
datasets/original/CE200/182,182.mp3,feature.json,ground_truth.txt,https://www.youtube.com/watch?v=3mEeKAdXAo4
datasets/original/CE200/73,73.mp3,feature.json,ground_truth.txt,https://www.youtube.com/watch?v=Sv6dMFF_yts
datasets/original/CE200/2,2.mp3,feature.json,ground_truth.txt,https://www.youtube.com/watch?v=GeCClzNCfcA
datasets/original/CE200/30014,30014.mp3,None,ground_truth.txt,https://www.youtube.com/watch?v=AAAAAAAA
datasets/original/CE200/109,109.mp3,feature.json,ground_truth.txt,https://www.youtube.com/watch?v=LM-tJIYmHLk
datasets/original/CE200/165,165.mp3,feature.json,ground_truth.txt,https://www.youtube.com/watch?v=olGSAVOkkTI
datasets/original/CE200/161,161.mp3,feature.json,ground_truth.txt,https://www.youtube.com/watch?v=x3bDhtuC5yk
datasets/original/CE200/30019,30019.mp3,None,ground_truth.txt,https://www.youtube.com/watch?v=AAAAAAAA
datasets/original/CE200/31,31.mp3,feature.json,ground_truth.txt,https://www.youtube.com/watch?v=cL4uhaQ58Rk
datasets/original/CE200/177,177.mp3,feature.json,ground_truth.txt,https://www.youtube.com/watch?v=04VXfavbeDs
datasets/original/CE200/80,80.mp3,feature.json,ground_truth.txt,https://www.youtube.com/watch?v=co6WMzDOh1o
datasets/original/CE200/147,147.mp3,feature.json,ground_truth.txt,https://www.youtube.com/watch?v=FMl7GEaYwAE
datasets/original/CE200/104,104.mp3,feature.json,ground_truth.txt,https://www.youtube.com/watch?v=mJLDjIWuPXU
datasets/original/CE200/86,86.mp3,feature.json,ground_truth.txt,https://www.youtube.com/watch?v=yyn7_u-sha88
datasets/original/CE200/138,138.mp3,feature.json,ground_truth.txt,https://youtu.be/bpJko9n8KTY
datasets/original/CE200/111,111.mp3,feature.json,ground_truth.txt,https://www.youtube.com/watch?v=TngViNw2pOo
datasets/original/CE200/30011,30011.mp3,None,ground_truth.txt,https://www.youtube.com/watch?v=AAAAAAAA
datasets/original/CE200/113,113.mp3,feature.json,ground_truth.txt,https://www.youtube.com/watch?v=TVcLIfSC4OE
datasets/original/CE200/9,9.mp3,feature.json,ground_truth.txt,https://www.youtube.com/watch?v=c6rP-YP4c5I
datasets/original/CE200/64,64.mp3,feature.json,ground_truth.txt,https://www.youtube.com/watch?v=IKqV7DB8Iwg
datasets/original/CE200/175,175.mp3,feature.json,ground_truth.txt,https://www.youtube.com/watch?v=imOl-THkyU4
datasets/original/CE200/46,46.mp3,feature.json,ground_truth.txt,https://www.youtube.com/watch?v=DK_0jXPuIr0
datasets/original/CE200/116,116.mp3,feature.json,ground_truth.txt,https://www.youtube.com/watch?v=UDDMYw_IZnE
datasets/original/CE200/13,13.mp3,feature.json,ground_truth.txt,https://www.youtube.com/watch?v=1-xGerv5FOk
datasets/original/CE200/30003,30003.mp3,None,ground_truth.txt,https://www.youtube.com/watch?v=AAAAAAAA
datasets/original/CE200/160,160.mp3,feature.json,ground_truth.txt,https://www.youtube.com/watch?v=1j_mpwKmlJg
datasets/original/CE200/97,97.mp3,feature.json,ground_truth.txt,https://www.youtube.com/watch?v=a2giXO6eyuI
datasets/original/CE200/199,199.mp3,feature.json,ground_truth.txt,https://www.youtube.com/watch?v=eM213aMKTHg
datasets/original/CE200/102,102.mp3,feature.json,ground_truth.txt,https://www.youtube.com/watch?v=K3BD6NQCGrA
datasets/original/CE200/8,8.mp3,feature.json,ground_truth.txt,https://www.youtube.com/watch?v=ZNra8eK0K6k
datasets/original/CE200/43,43.mp3,feature.json,ground_truth.txt,https://www.youtube.com/watch?v=kffacxfA7G4
datasets/original/CE200/198,198.mp3,feature.json,ground_truth.txt,https://www.youtube.com/watch?v=rywUS-ohqeE
datasets/original/CE200/127,127.mp3,feature.json,ground_truth.txt,https://www.youtube.com/watch?v=7BJ3ZXpserc
datasets/original/CE200/78,78.mp3,feature.json,ground_truth.txt,https://www.youtube.com/watch?v=e2vBLd5Egnk
datasets/original/CE200/122,122.mp3,feature.json,ground_truth.txt,https://www.youtube.com/watch?v=kLDVTfQGDe4
datasets/original/CE200/139,139.mp3,feature.json,ground_truth.txt,https://youtu.be/zgmnU8BxE2c
datasets/original/CE200/88,88.mp3,feature.json,ground_truth.txt,https://www.youtube.com/watch?v=9WbCfHutDSEE
datasets/original/CE200/92,92.mp3,feature.json,ground_truth.txt,https://www.youtube.com/watch?v=QGJuMBdaqIw
datasets/original/CE200/119,119.mp3,feature.json,ground_truth.txt,https://www.youtube.com/watch?v=EkHTsc9PU2A
datasets/original/CE200/154,154.mp3,feature.json,ground_truth.txt,https://www.youtube.com/watch?v=pPr8vkMAe9w
datasets/original/CE200/30020,30020.mp3,None,ground_truth.txt,https://www.youtube.com/watch?v=AAAAAAAA
datasets/original/CE200/96,96.mp3,feature.json,ground_truth.txt,https://www.youtube.com/watch?v=3XcxRQ4aKsc
datasets/original/CE200/140,140.mp3,feature.json,ground_truth.txt,https://www.youtube.com/watch?v=1dyRJJzlwQ8
datasets/original/CE200/34,34.mp3,feature.json,ground_truth.txt,https://www.youtube.com/watch?v=M1N_wbhAfQ4
datasets/original/CE200/191,191.mp3,feature.json,ground_truth.txt,https://www.youtube.com/watch?v=0DdCoNbbRvQ
datasets/original/CE200/112,112.mp3,feature.json,ground_truth.txt,https://www.youtube.com/watch?v=zdR7v0WbZbA
datasets/original/CE200/30005,30005.mp3,None,ground_truth.txt,https://www.youtube.com/watch?v=AAAAAAAA
datasets/original/CE200/63,63.mp3,feature.json,ground_truth.txt,https://www.youtube.com/watch?v=WpYeekQkAdc
datasets/original/CE200/27,27.mp3,feature.json,ground_truth.txt,https://www.youtube.com/watch?v=igNVdlXhKcI
datasets/original/CE200/103,103.mp3,feature.json,ground_truth.txt,https://www.youtube.com/watch?v=N-3gdbxP8lU
datasets/original/CE200/93,93.mp3,feature.json,ground_truth.txt,https://www.youtube.com/watch?v=3tBk7ONm95Q
datasets/original/CE200/195,195.mp3,feature.json,ground_truth.txt,https://www.youtube.com/watch?v=bKxodgpyGec
datasets/original/CE200/30006,30006.mp3,None,ground_truth.txt,https://www.youtube.com/watch?v=AAAAAAAA
datasets/original/CE200/142,142.mp3,feature.json,ground_truth.txt,https://www.youtube.com/watch?v=ZUm48lPJPLc
datasets/original/CE200/30016,30016.mp3,None,ground_truth.txt,https://www.youtube.com/watch?v=AAAAAAAA
datasets/original/CE200/108,108.mp3,feature.json,ground_truth.txt,https://www.youtube.com/watch?v=yKNxeF4KMsY
datasets/original/CE200/83,83.mp3,feature.json,ground_truth.txt,https://www.youtube.com/watch?v=D0_GWTy9FEM
datasets/original/CE200/30002,30002.mp3,None,ground_truth.txt,https://www.youtube.com/watch?v=AAAAAAAA
datasets/original/CE200/71,71.mp3,feature.json,ground_truth.txt,https://www.youtube.com/watch?v=qHm9MG9xw1oo
datasets/original/CE200/30021,30021.mp3,None,ground_truth.txt,https://www.youtube.com/watch?v=AAAAAAAA
datasets/original/CE200/159,159.mp3,feature.json,ground_truth.txt,https://www.youtube.com/watch?v=P8fqHvr82-o
datasets/original/CE200/143,143.mp3,feature.json,ground_truth.txt,https://www.youtube.com/watch?v=aa2AhDaK_iY
datasets/original/CE200/150,150.mp3,feature.json,ground_truth.txt,https://www.youtube.com/watch?v=Y2ge3KrdeWs
datasets/original/CE200/152,152.mp3,feature.json,ground_truth.txt,https://www.youtube.com/watch?v=F5RE_S8aIF8
datasets/original/CE200/135,135.mp3,feature.json,ground_truth.txt,https://youtu.be/A8N_sQ_kK48
datasets/original/CE200/56,56.mp3,feature.json,ground_truth.txt,https://www.youtube.com/watch?v=mWRsgZuwf_8
datasets/original/CE200/156,156.mp3,feature.json,ground_truth.txt,https://www.youtube.com/watch?v=bwB4KYblxsY
datasets/original/CE200/100,100.mp3,feature.json,ground_truth.txt,https://www.youtube.com/watch?v=53IHdiCabSc
datasets/original/CE200/30023,30023.mp3,None,ground_truth.txt,https://www.youtube.com/watch?v=AAAAAAAA
datasets/original/CE200/101,101.mp3,feature.json,ground_truth.txt,https://www.youtube.com/watch?v=B4KCdo4NYI4
datasets/original/CE200/51,51.mp3,feature.json,ground_truth.txt,https://www.youtube.com/watch?v=CduA0TULnow
datasets/original/CE200/6,6.mp3,feature.json,ground_truth.txt,https://www.youtube.com/watch?v=Voo86mlxZvA
datasets/original/CE200/60,60.mp3,feature.json,ground_truth.txt,https://www.youtube.com/watch?v=k4V3Mo61fJM
datasets/original/CE200/74,74.mp3,feature.json,ground_truth.txt,https://www.youtube.com/watch?v=DyDfgMOUjCI
datasets/original/CE200/84,84.mp3,feature.json,ground_truth.txt,https://www.youtube.com/watch?v=Pkh8UtuejGw
datasets/original/CE200/72,72.mp3,feature.json,ground_truth.txt,https://www.youtube.com/watch?v=ZSM3w1v-A_Y
datasets/original/CE200/193,193.mp3,feature.json,ground_truth.txt,https://www.youtube.com/watch?v=2wv-72l0XC0
datasets/original/CE200/66,66.mp3,feature.json,ground_truth.txt,https://www.youtube.com/watch?v=SgM3r8xKfGEE
datasets/original/CE200/1,1.mp3,feature.json,ground_truth.txt,https://www.youtube.com/watch?v=oBIxScJ5rlY
datasets/original/CE200/158,158.mp3,feature.json,ground_truth.txt,https://www.youtube.com/watch?v=S4JLJVVjevI
datasets/original/CE200/48,48.mp3,feature.json,ground_truth.txt,https://www.youtube.com/watch?v=axRAL0BXNvw
datasets/original/CE200/54,54.mp3,feature.json,ground_truth.txt,https://www.youtube.com/watch?v=pok8H_KF1FA
datasets/original/CE200/21,21.mp3,feature.json,ground_truth.txt,https://www.youtube.com/watch?v=e-ORhEE9VVg
datasets/original/CE200/16,16.mp3,feature.json,ground_truth.txt,https://www.youtube.com/watch?v=ySAT-PlKx0Q
datasets/original/CE200/30,30.mp3,feature.json,ground_truth.txt,https://www.youtube.com/watch?v=KRaWnd3LJfs
datasets/original/CE200/65,65.mp3,feature.json,ground_truth.txt,https://www.youtube.com/watch?v=cSnkWzZ7ZAAA
datasets/original/CE200/131,131.mp3,feature.json,ground_truth.txt,https://www.youtube.com/watch?v=FXg4LXsg14s
datasets/original/CE200/82,82.mp3,feature.json,ground_truth.txt,https://www.youtube.com/watch?v=AtKZKl7Bgu0
datasets/original/CE200/38,38.mp3,feature.json,ground_truth.txt,https://www.youtube.com/watch?v=LjhCEhWiKXk
datasets/original/CE200/155,155.mp3,feature.json,ground_truth.txt,https://www.youtube.com/watch?v=Y4xCVlyCvX4
datasets/original/CE200/24,24.mp3,feature.json,ground_truth.txt,https://www.youtube.com/watch?v=r00ikilDxW4
datasets/original/CE200/45,45.mp3,feature.json,ground_truth.txt,https://www.youtube.com/watch?v=fRh_vgS2dFE
datasets/original/CE200/98,98.mp3,feature.json,ground_truth.txt,https://www.youtube.com/watch?v=W1W0eKWQtck
datasets/original/CE200/30018,30018.mp3,None,ground_truth.txt,https://www.youtube.com/watch?v=AAAAAAAA
datasets/original/CE200/124,124.mp3,feature.json,ground_truth.txt,https://www.youtube.com/watch?v=fRIWiboT4bA
datasets/original/CE200/87,87.mp3,feature.json,ground_truth.txt,https://www.youtube.com/watch?v=bgCdd0Db_fMM
datasets/original/CE200/110,110.mp3,feature.json,ground_truth.txt,https://www.youtube.com/watch?v=JRfuAukYTKg
datasets/original/CE200/157,157.mp3,feature.json,ground_truth.txt,https://www.youtube.com/watch?v=iSkRGgYSQfY
datasets/original/CE200/187,187.mp3,feature.json,ground_truth.txt,https://www.youtube.com/watch?v=MhC_iLBrSUY
datasets/original/CE200/105,105.mp3,feature.json,ground_truth.txt,https://www.youtube.com/watch?v=Siz-xBfIqpg
datasets/original/CE200/166,166.mp3,feature.json,ground_truth.txt,https://www.youtube.com/watch?v=KvwY9DN7LxY
datasets/original/CE200/188,188.mp3,feature.json,ground_truth.txt,https://www.youtube.com/watch?v=ftdZ363R9kQ
datasets/original/CE200/149,149.mp3,feature.json,ground_truth.txt,https://www.youtube.com/watch?v=PtrIG-4ulTE
datasets/original/CE200/81,81.mp3,feature.json,ground_truth.txt,https://www.youtube.com/watch?v=AJtDXIazrMoo
datasets/original/CE200/22,22.mp3,feature.json,ground_truth.txt,https://www.youtube.com/watch?v=gpYdoNHl4_I
datasets/original/CE200/126,126.mp3,feature.json,ground_truth.txt,https://www.youtube.com/watch?v=aJOTlE1K90k
datasets/original/CE200/44,44.mp3,feature.json,ground_truth.txt,https://www.youtube.com/watch?v=TiK7QtIHy_Y
datasets/original/CE200/197,197.mp3,feature.json,ground_truth.txt,https://www.youtube.com/watch?v=i1GmxMTwUgs
datasets/original/CE200/128,128.mp3,feature.json,ground_truth.txt,https://www.youtube.com/watch?v=xHWIhCUnfOE
datasets/original/CE200/15,15.mp3,feature.json,ground_truth.txt,https://www.youtube.com/watch?v=VuNIsY6JdUw
datasets/original/CE200/172,172.mp3,feature.json,ground_truth.txt,https://www.youtube.com/watch?v=G8Ognavp0zs
datasets/original/CE200/107,107.mp3,feature.json,ground_truth.txt,https://www.youtube.com/watch?v=sEhQTjgoTdU
datasets/original/CE200/5,5.mp3,feature.json,ground_truth.txt,https://www.youtube.com/watch?v=BpIf43m2ZQI
datasets/original/CE200/144,144.mp3,feature.json,ground_truth.txt,https://www.youtube.com/watch?v=sg_WE0ToJjM
datasets/original/CE200/114,114.mp3,feature.json,ground_truth.txt,https://www.youtube.com/watch?v=Fkusy4ylhiY
datasets/original/CE200/68,68.mp3,feature.json,ground_truth.txt,https://www.youtube.com/watch?v=PT2_F-1esPkk
datasets/original/CE200/169,169.mp3,feature.json,ground_truth.txt,https://www.youtube.com/watch?v=SMBNR2ehYwo
datasets/original/CE200/90,90.mp3,feature.json,ground_truth.txt,https://www.youtube.com/watch?v=El79WQpXyPQ
datasets/original/CE200/194,194.mp3,feature.json,ground_truth.txt,https://www.youtube.com/watch?v=mpaPBCBjSVc
datasets/original/CE200/115,115.mp3,feature.json,ground_truth.txt,https://www.youtube.com/watch?v=JGwWNGJdvx8
datasets/original/CE200/14,14.mp3,feature.json,ground_truth.txt,https://www.youtube.com/watch?v=8xg3vE8Ie_E
datasets/original/CE200/30012,30012.mp3,None,ground_truth.txt,https://www.youtube.com/watch?v=AAAAAAAA
datasets/original/CE200/170,170.mp3,feature.json,ground_truth.txt,https://www.youtube.com/watch?v=T3HajLSq3EA
datasets/original/CE200/130,130.mp3,feature.json,ground_truth.txt,https://www.youtube.com/watch?v=-gaB9ov-Om0
datasets/original/CE200/189,189.mp3,feature.json,ground_truth.txt,https://www.youtube.com/watch?v=GemKqzILV4w
datasets/original/CE200/41,41.mp3,feature.json,ground_truth.txt,https://www.youtube.com/watch?v=5X-Mrc2l1d0
datasets/original/CE200/145,145.mp3,feature.json,ground_truth.txt,https://www.youtube.com/watch?v=lvDa3r1pNuE
datasets/original/CE200/137,137.mp3,feature.json,ground_truth.txt,https://www.youtube.com/watch?v=nSmcSLsJSKo
datasets/original/CE200/70,70.mp3,feature.json,ground_truth.txt,https://www.youtube.com/watch?v=87gWaABqGYs
datasets/original/CE200/180,180.mp3,feature.json,ground_truth.txt,https://www.youtube.com/watch?v=hkDShEZUlsQ
datasets/original/CE200/99,99.mp3,feature.json,ground_truth.txt,https://www.youtube.com/watch?v=A7ry4cx6HfY
datasets/original/CE200/134,134.mp3,feature.json,ground_truth.txt,https://www.youtube.com/watch?v=SmbmeOgWsqE
datasets/original/CE200/146,146.mp3,feature.json,ground_truth.txt,https://www.youtube.com/watch?v=_zv8Y94eLYI
datasets/original/CE200/35,35.mp3,feature.json,ground_truth.txt,https://www.youtube.com/watch?v=nEJk2FJJ18c
datasets/original/CE200/129,129.mp3,feature.json,ground_truth.txt,https://www.youtube.com/watch?v=izGwDsrQ1eQ
datasets/original/CE200/32,32.mp3,feature.json,ground_truth.txt,https://www.youtube.com/watch?v=kOCkne-Bku4
datasets/original/CE200/196,196.mp3,feature.json,ground_truth.txt,https://www.youtube.com/watch?v=gnhXHvRoUd0
datasets/original/CE200/30008,30008.mp3,None,ground_truth.txt,https://www.youtube.com/watch?v=AAAAAAAA
datasets/original/CE200/125,125.mp3,feature.json,ground_truth.txt,https://www.youtube.com/watch?v=6VY8ZxcDh1s
datasets/original/CE200/62,62.mp3,feature.json,ground_truth.txt,https://www.youtube.com/watch?v=FM7MFYoylVs
datasets/original/CE200/121,121.mp3,feature.json,ground_truth.txt,https://www.youtube.com/watch?v=PIFUWHvSixw
datasets/original/CE200/106,106.mp3,feature.json,ground_truth.txt,https://www.youtube.com/watch?v=JsWG2Gry1fw
datasets/original/CE200/85,85.mp3,feature.json,ground_truth.txt,https://www.youtube.com/watch?v=aatr_2MstrI
datasets/original/CE200/181,181.mp3,feature.json,ground_truth.txt,https://www.youtube.com/watch?v=S6G67VNYmhk
datasets/original/CE200/49,49.mp3,feature.json,ground_truth.txt,https://www.youtube.com/watch?v=2i2khp_npdE
datasets/original/CE200/153,153.mp3,feature.json,ground_truth.txt,https://www.youtube.com/watch?v=fLexgOxsZu0
datasets/original/CE200/133,133.mp3,feature.json,ground_truth.txt,https://www.youtube.com/watch?v=gPpZJlE0Ca8
datasets/original/CE200/151,151.mp3,feature.json,ground_truth.txt,https://www.youtube.com/watch?v=F2uX6ByoW7A
datasets/original/CE200/55,55.mp3,feature.json,ground_truth.txt,https://www.youtube.com/watch?v=fKopy74weus
datasets/original/CE200/168,168.mp3,feature.json,ground_truth.txt,https://www.youtube.com/watch?v=n0FOgqJv6Vs
datasets/original/CE200/29,29.mp3,feature.json,ground_truth.txt,https://www.youtube.com/watch?v=09R8_2nJtjg
datasets/original/CE200/141,141.mp3,feature.json,ground_truth.txt,https://youtu.be/T4SimnaiktU
datasets/original/CE200/132,132.mp3,feature.json,ground_truth.txt,https://www.youtube.com/watch?v=OPkqtboFFYI
datasets/original/CE200/183,183.mp3,feature.json,ground_truth.txt,https://www.youtube.com/watch?v=LeUMB8GXL7k
datasets/original/CE200/171,171.mp3,feature.json,ground_truth.txt,https://www.youtube.com/watch?v=HNFozKejCvs
datasets/original/CE200/30000,30000.mp3,None,ground_truth.txt,https://www.youtube.com/watch?v=AAAAAAAA
datasets/original/CE200/30015,30015.mp3,None,ground_truth.txt,https://www.youtube.com/watch?v=AAAAAAAA
datasets/original/CE200/39,39.mp3,feature.json,ground_truth.txt,https://www.youtube.com/watch?v=OPf0YbXqDm0
datasets/original/CE200/148,148.mp3,feature.json,ground_truth.txt,https://www.youtube.com/watch?v=y5bUCGzw6tY
datasets/original/CE200/12,12.mp3,feature.json,ground_truth.txt,https://www.youtube.com/watch?v=60ItHLz5WEA
datasets/original/CE200/179,179.mp3,feature.json,ground_truth.txt,https://www.youtube.com/watch?v=whlQJxmhmUk
datasets/original/CE200/67,67.mp3,feature.json,ground_truth.txt,https://www.youtube.com/watch?v=kJQP7kiw5Fkk
datasets/original/CE200/89,89.mp3,feature.json,ground_truth.txt,https://www.youtube.com/watch?v=g5qU7p7yOY8
datasets/original/CE200/57,57.mp3,feature.json,ground_truth.txt,https://www.youtube.com/watch?v=KEI4qSrkPAs
datasets/original/CE200/173,173.mp3,feature.json,ground_truth.txt,https://www.youtube.com/watch?v=hmUeImHVs_E
datasets/original/CE200/4,4.mp3,feature.json,ground_truth.txt,https://www.youtube.com/watch?v=5NV6Rdv1a3I
datasets/original/CE200/52,52.mp3,feature.json,ground_truth.txt,https://www.youtube.com/watch?v=PIh2xe4jnpk
datasets/original/CE200/118,118.mp3,feature.json,ground_truth.txt,https://www.youtube.com/watch?v=CAEUnn0HNLM
datasets/original/CE200/163,163.mp3,feature.json,ground_truth.txt,https://www.youtube.com/watch?v=YJfHuATJYsQ
datasets/original/CE200/176,176.mp3,feature.json,ground_truth.txt,https://www.youtube.com/watch?v=ZXSO_FCoek4
datasets/original/CE200/200,200.mp3,feature.json,ground_truth.txt,https://www.youtube.com/watch?v=tPnK39ax_AM
datasets/original/CE200/61,61.mp3,feature.json,ground_truth.txt,https://www.youtube.com/watch?v=RB-RcX5DS5A
datasets/original/CE200/117,117.mp3,feature.json,ground_truth.txt,https://www.youtube.com/watch?v=lp-EO5I60KA
datasets/original/CE200/123,123.mp3,feature.json,ground_truth.txt,https://www.youtube.com/watch?v=HqK4-dIiKY8
datasets/original/CE200/164,164.mp3,feature.json,ground_truth.txt,https://www.youtube.com/watch?v=VhCRokYVF1I
datasets/original/CE200/79,79.mp3,feature.json,ground_truth.txt,https://www.youtube.com/watch?v=2vjPBrBU-TM
datasets/original/CE200/162,162.mp3,feature.json,ground_truth.txt,https://www.youtube.com/watch?v=Ew4VvF0DPMc
datasets/original/CE200/53,53.mp3,feature.json,ground_truth.txt,https://www.youtube.com/watch?v=nSDgHBxUbVQ
datasets/original/CE200/77,77.mp3,feature.json,ground_truth.txt,https://www.youtube.com/watch?v=Nj2U6rhnucI
datasets/original/CE200/17,17.mp3,feature.json,ground_truth.txt,https://www.youtube.com/watch?v=0FxbMW_20sQ
datasets/original/CE200/11,11.mp3,feature.json,ground_truth.txt,https://www.youtube.com/watch?v=RgKAFK5djSk
datasets/original/CE200/40,40.mp3,feature.json,ground_truth.txt,https://www.youtube.com/watch?v=nPvuNsRccVw
datasets/original/CE200/37,37.mp3,feature.json,ground_truth.txt,https://www.youtube.com/watch?v=PMivT7MJ41MM
datasets/original/CE200/59,59.mp3,feature.json,ground_truth.txt,https://www.youtube.com/watch?v=oG08ukJPtR8
datasets/original/CE200/136,136.mp3,feature.json,ground_truth.txt,https://www.youtube.com/watch?v=xi6wOaZ61-U
datasets/original/CE200/120,120.mp3,feature.json,ground_truth.txt,https://www.youtube.com/watch?v=5MkfBNl_3pw
datasets/original/CE200/7,7.mp3,feature.json,ground_truth.txt,https://www.youtube.com/watch?v=0dR5yIHZs-w
datasets/original/CE200/30022,30022.mp3,None,ground_truth.txt,https://www.youtube.com/watch?v=AAAAAAAA
datasets/original/CE200/30004,30004.mp3,None,ground_truth.txt,https://www.youtube.com/watch?v=AAAAAAAA
datasets/original/CE200/50,50.mp3,feature.json,ground_truth.txt,https://www.youtube.com/watch?v=lVhJ_A8XUgc
datasets/original/CE200/33,33.mp3,feature.json,ground_truth.txt,https://www.youtube.com/watch?v=X4Q7d0CtYyk
datasets/original/CE200/36,36.mp3,feature.json,ground_truth.txt,https://www.youtube.com/watch?v=EXWOJvlDwbU
datasets/original/CE200/76,76.mp3,feature.json,ground_truth.txt,https://www.youtube.com/watch?v=oygrmJFKYZY
datasets/original/CE200/28,28.mp3,feature.json,ground_truth.txt,https://www.youtube.com/watch?v=XPpTgCho5ZA
